Reporte
…
Reporte

Para fines de este reporte se considera VRAEM a los distritos identificados dentro de la Zona VRAEM según lo publicado por DEVIDA en el Reporte N° 7: SUPERFICIE CULTIVADA CON ARBUSTO DE HOJA DE COCA MONITOREADA EN 20211 en setiembre de 2022.

# A tibble: 24 × 4
   departamento provincia     distrito         subzona
   <chr>        <chr>         <chr>            <chr>  
 1 JUNIN        SATIPO        COVIRIALI        NORTE  
 2 JUNIN        SATIPO        LLAYLLA          NORTE  
 3 JUNIN        SATIPO        MAZAMARI         NORTE  
 4 JUNIN        SATIPO        PANGOA           NORTE  
 5 JUNIN        SATIPO        RIO TAMBO        NORTE  
 6 JUNIN        SATIPO        VIZCATAN DEL ENE NORTE  
 7 AYACUCHO     LA MAR        AYNA             CENTRO 
 8 AYACUCHO     HUANTA        CANAYRE          CENTRO 
 9 CUSCO        LA CONVENCION KIMBIRI          CENTRO 
10 CUSCO        LA CONVENCION CIELO PUNCO      CENTRO 
# … with 14 more rows
…
